…
## Staff IDs

`staff_ids.csv`

This dataset contains mappings between researchers’ names and their
respective ORCID and Google Scholar IDs. It is useful for linking and
identifying academic profiles across different platforms.

``` r
staff_ids
#> # A tibble: 57 × 4
#>    first_name last_name orcid_id            scholar_id  
#>    <chr>      <chr>     <chr>               <chr>       
#>  1 Akanksha   Negi      0000-0003-2531-9408 Gcz8Ng0AAAAJ
#>  2 Alyssa     Hu        0000-0002-9013-8374 IIDTKgsAAAAJ
#>  3 Andrew     Matthews  <NA>                <NA>        
#>  4 Ann        Maharaj   0000-0002-5513-962X BZ07eocAAAAJ
#>  5 Athanasios Pantelous 0000-0001-5738-1471 ZMaiiQwAAAAJ
#>  6 Benjamin   Wong      0000-0002-1665-6165 Nneg6GAAAAAJ
#>  7 Bin        Peng      0000-0003-4231-4713 5d3ZOm4AAAAJ
#>  8 Bonsoo     Koo       0000-0002-7247-9773 OmK08lAAAAAJ
#>  9 Brett      Inder     <NA>                Wx6eeWgAAAAJ
#> 10 Catherine  Forbes    0000-0003-3830-5865 jm73LccAAAAJ
#> # ℹ 47 more rows
```

## Google scholar publications

Given a vector of Google Scholar IDs, the
[`fetch_scholar()`](https://numbats.github.io/spiderorchid/reference/fetch_scholar.md)
function retrieves publication details and returns them in the form of a
data frame, with one row per publication.

``` r
staff_ids |>
  filter(last_name %in% c("Negi", "Lydeamore")) |>
  pull(scholar_id) |>
  fetch_scholar()
#> # A tibble: 50 × 6
#>    scholar_id   authors                title publication_year journal_name DOI  
#>    <chr>        <chr>                  <chr>            <int> <chr>        <chr>
#>  1 Gcz8Ng0AAAAJ A Negi, D Roy          The …             2015 IFPRI Discu… <NA> 
#>  2 Gcz8Ng0AAAAJ R Chandra, PK Joshi, … Dyna…             2017 IFPRI book … <NA> 
#>  3 Gcz8Ng0AAAAJ P Birthal, A Negi, PK… Unde…             2019 Journal of … <NA> 
#>  4 Gcz8Ng0AAAAJ A Negi, JM Wooldridge  Revi…             2021 Econometric… <NA> 
#>  5 Gcz8Ng0AAAAJ C Cox, A Negi, D Negi  Risk…             2023 Available a… <NA> 
#>  6 Gcz8Ng0AAAAJ G Rathnayake, A Negi,… Diff…             2024 arXiv prepr… <NA> 
#>  7 Gcz8Ng0AAAAJ A Negi, W Jeffrey M    Doub…             2024 Econometric… <NA> 
#>  8 Gcz8Ng0AAAAJ A Negi                 Doub…             2024 Journal of … <NA> 
#>  9 Gcz8Ng0AAAAJ A Negi, DS Negi        Diff…             2025 Journal of … <NA> 
#> 10 Gcz8Ng0AAAAJ A Negi, D Nibbering    Iden…             2025 arXiv prepr… <NA> 
#> # ℹ 40 more rows
```
…
## PURE publications

Given a vector of years, the
[`fetch_pure()`](https://numbats.github.io/spiderorchid/reference/fetch_pure.md)
function retrieves publication details from the PURE system for academic
staff in the Department of Econometrics & Business Statistics, Monash
University.

``` r
fetch_pure(2024)
```

``` R
#> # A tibble: 83 × 8
#>    pure_id    year authors                     title journal subtype bib   doi  
#>    <chr>     <int> <chr>                       <chr> <chr>   <chr>   <chr> <chr>
#>  1 580119537  2024 Negi, A & Wooldridge, JM    Doub… Econom… Article Negi… 10.1…
#>  2 578896645  2024 Negi, A                     Doub… Journa… Article Negi… 10.1…
#>  3 577211348  2024 Nibbering, D                A hi… Journa… Article Nibb… 10.1…
#>  4 576146015  2024 Rostami-Tabar, B & Hyndman… Hier… Journa… Article Rost… 10.1…
#>  5 574756920  2024 Fang, X, Zhou, J, Pantelou… A ma… Expert… Article Fang… 10.1…
#>  6 571851299  2024 Kim, HY & McLaren, KR       Inte… Resear… Article Kim,… 10.1…
#>  7 571257919  2024 Gao, J, Peng, B, Wu, WB & … Time… Journa… Article Gao,… 10.1…
#>  8 571257838  2024 Yan, Y, Gao, J & Peng, B    Asym… Econom… Article Yan,… 10.1…
#>  9 565992428  2024 Athanasopoulos, G, Hyndman… Fore… Intern… Article Atha… 10.1…
#> 10 564353599  2024 Wang, G, Zhou, J, Pantelou… A de… Comput… Article Wang… 10.1…
#> # ℹ 73 more rows
```
…
The function is run periodically, and the data stored as `ebs_pure`.
Currently, the stored data includes publications from January 2018 to
May 2025.

``` r
ebs_pure
#> # A tibble: 613 × 8
#>    pure_id    year authors                     title journal subtype bib   doi  
#>    <chr>     <int> <chr>                       <chr> <chr>   <chr>   <chr> <chr>
#>  1 580119537  2024 Negi, A & Wooldridge, JM    Doub… Econom… Article Negi… 10.1…
#>  2 578896645  2024 Negi, A                     Doub… Journa… Article Negi… 10.1…
#>  3 577211348  2024 Nibbering, D                A hi… Journa… Article Nibb… 10.1…
#>  4 576146015  2024 Rostami-Tabar, B & Hyndman… Hier… Journa… Article Rost… 10.1…
#>  5 574756920  2024 Fang, X, Zhou, J, Pantelou… A ma… Expert… Article Fang… 10.1…
#>  6 574375066  2023 Pullin, JM, Gurrin, LC & V… Stat… The R … Article Pull… 10.3…
#>  7 571851299  2024 Kim, HY & McLaren, KR       Inte… Resear… Article Kim,… 10.1…
#>  8 571257919  2024 Gao, J, Peng, B, Wu, WB & … Time… Journa… Article Gao,… 10.1…
#>  9 571257838  2024 Yan, Y, Gao, J & Peng, B    Asym… Econom… Article Yan,… 10.1…
#> 10 567405205  2023 Zhou, J, Jiang, G, Pantelo… Onli… IEEE T… Article Zhou… 10.1…
#> # ℹ 603 more rows
```

## CRAN packages

This function retrieves information about CRAN packages authored by
specified individuals. It returns a data frame containing the package
name, number of downloads, the authors, and the last update date.

``` r
c(
  "Michael Lydeamore",
  "Di Cook",
  "Dianne Cook"
) |>
  fetch_cran()
#> # A tibble: 43 × 11
#>    package         date       title   description version authors url   cran_url
#>    <chr>           <date>     <chr>   <chr>       <chr>   <chr>   <chr> <chr>   
#>  1 cardinalR       2025-12-18 "Colle… "A collect… 1.0.6   "Jayan… http… https:/…
#>  2 condensr        2023-08-30 "Acade… "Helps aut… 1.0.0   "Micha… http… https:/…
#>  3 HospitalNetwork 2024-12-22 "Build… "Set of to… 0.9.4   "Pasca… http… https:/…
#>  4 quollr          2025-12-18 "Visua… "To constr… 1.0.6   "Jayan… http… https:/…
#>  5 brolgar         2025-09-03 "Brows… "Provides … 1.0.2   "Nicho… http… https:/…
#>  6 eechidna        2021-02-25 "Explo… "Data from… 1.4.1   "Jerem… http… https:/…
#>  7 fabletools      2025-09-01 "Core … "Provides … 0.5.1   "Mitch… http… https:/…
#>  8 feasts          2025-08-27 "Featu… "Provides … 0.4.2   "Mitch… http… https:/…
#>  9 geozoo          2016-05-07 "Zoo o… "Geometric… 0.5.1   "Barre… http… https:/…
#> 10 GGally          2025-08-23 "Exten… "The R pac… 2.4.0   "Barre… http… https:/…
#> # ℹ 33 more rows
#> # ℹ 3 more variables: github_url <chr>, first_download <date>, downloads <dbl>
```
…
