Download and wrangle publication data for Monash EBS academic staff • spiderorchid
…
Dataset

staff_ids.csv

This dataset contains mappings between researchers’ names and their respective ORCID and Google Scholar IDs. It is useful for linking and identifying academic profiles across different platforms.

staff_ids
#> # A tibble: 57 × 4
#>    first_name last_name orcid_id            scholar_id  
#>    <chr>      <chr>     <chr>               <chr>       
#>  1 Akanksha   Negi      0000-0003-2531-9408 Gcz8Ng0AAAAJ
#>  2 Alan       Powell    <NA>                <NA>        
#>  3 Andrew     Matthews  <NA>                <NA>        
#>  4 Ann        Maharaj   0000-0002-5513-962X BZ07eocAAAAJ
#>  5 Athanasios Pantelous 0000-0001-5738-1471 ZMaiiQwAAAAJ
#>  6 Benjamin   Wong      0000-0002-1665-6165 Nneg6GAAAAAJ
#>  7 Bin        Peng      0000-0003-4231-4713 5d3ZOm4AAAAJ
#>  8 Bonsoo     Koo       0000-0002-7247-9773 OmK08lAAAAAJ
#>  9 Brett      Inder     <NA>                Wx6eeWgAAAAJ
#> 10 Catherine  Forbes    0000-0003-3830-5865 jm73LccAAAAJ
#> # ℹ 47 more rows

Google scholar publications

staff_ids |>
  filter(last_name %in% c("Negi", "Lydeamore")) |>
  pull(scholar_id) |>
  fetch_scholar()
#> # A tibble: 24 × 6
#>    scholar_id   authors                title publication_year journal_name DOI  
#>    <chr>        <chr>                  <chr>            <int> <chr>        <chr>
#>  1 Gcz8Ng0AAAAJ A Negi, D Roy          The …             2015 IFPRI Discu… <NA> 
#>  2 Gcz8Ng0AAAAJ R Chandra, PK Joshi, … Dyna…             2017 IFPRI book … <NA> 
#>  3 Gcz8Ng0AAAAJ P Birthal, A Negi, PK… Unde…             2019 Journal of … <NA> 
#>  4 Gcz8Ng0AAAAJ A Negi                 Robu…             2020 Michigan St… <NA> 
#>  5 Gcz8Ng0AAAAJ A Negi, JM Wooldridge  Revi…             2021 Econometric… <NA> 
#>  6 Gcz8Ng0AAAAJ C Cox, A Negi, D Negi  Risk…             2023 Available a… <NA> 
#>  7 Gcz8Ng0AAAAJ G Rathnayake, A Negi,… Diff…             2024 arXiv prepr… <NA> 
#>  8 Gcz8Ng0AAAAJ A Negi, W Jeffrey M    Doub…             2024 Econometric… <NA> 
#>  9 Gcz8Ng0AAAAJ A Negi                 Doub…             2024 Journal of … <NA> 
#> 10 Gcz8Ng0AAAAJ A Negi, JM Wooldridge  Robu…             2024 Journal of … <NA> 
#> # ℹ 14 more rows
…
CRAN packages

This function retrieves information about CRAN packages authored by a specified individual. It returns a data frame containing the package name, number of downloads, the authors, and the last update date.

fetch_cran(c(
  "Michael Lydeamore",
  "Di Cook",
  "Dianne Cook"
))
#> # A tibble: 40 × 11
#>    package         date       title   description version authors url   cran_url
#>    <chr>           <date>     <chr>   <chr>       <chr>   <chr>   <chr> <chr>   
#>  1 cardinalR       2024-04-16 "Colle… "A collect… 0.1.1   "Jayan… http… https:/…
#>  2 condensr        2023-08-30 "Acade… "Helps aut… 1.0.0   "Micha… http… https:/…
#>  3 HospitalNetwork 2024-12-22 "Build… "Set of to… 0.9.4   "Pasca… http… https:/…
#>  4 quollr          2024-03-05 "Visua… "To constr… 0.1.1   "Jayan… http… https:/…
#>  5 brolgar         2024-05-10 "Brows… "Provides … 1.0.1   "Nicho… http… https:/…
#>  6 eechidna        2021-02-25 "Explo… "Data from… 1.4.1   "Jerem… http… https:/…
#>  7 fabletools      2024-09-17 "Core … "Provides … 0.5.0   "Mitch… http… https:/…
#>  8 feasts          2024-09-25 "Featu… "Provides … 0.4.1   "Mitch… http… https:/…
#>  9 geozoo          2016-05-07 "Zoo o… "Geometric… 0.5.1   "Barre… http… https:/…
#> 10 GGally          2024-02-13 "Exten… "\nThe R p… 2.2.1   "Barre… http… https:/…
#> # ℹ 30 more rows
#> # ℹ 3 more variables: github_url <chr>, first_download <date>, downloads <dbl>
…
