…
``` r
library(dplyr)
#> 
#> Attaching package: ‘dplyr’
#> The following objects are masked from ‘package:stats’:
#> 
#>     filter, lag
#> The following objects are masked from ‘package:base’:
#> 
#>     intersect, setdiff, setequal, union
abdc |>
  filter(field_of_research == "4905") |>
  arrange(rank) |>
  select(title, rank)
#> # A tibble: 85 × 2
#>    title                                                                   rank 
#>    <chr>                                                                   <ord>
#>  1 Annals of Probability                                                   A*   
#>  2 Annals of Statistics                                                    A*   
#>  3 Biometrika                                                              A*   
#>  4 Journal of Computational and Graphical Statistics                       A*   
#>  5 Journal of the American Statistical Association                         A*   
#>  6 Journal of the Royal Statistical Society, Series B (Statistical Method… A*   
#>  7 Probability Theory and Related Fields                                   A*   
#>  8 Advances in Applied Probability                                         A    
#>  9 Annals of Applied Probability                                           A    
#> 10 Annals of Applied Statistics                                            A    
#> # ℹ 75 more rows
```
