…
## Examples

``` r
core
#> # A tibble: 982 × 2
#>    title                                                                   rank 
#>    <chr>                                                                   <ord>
#>  1 ACM Conference on Applications, Technologies, Architectures, and Proto… A*   
#>  2 ACM Conference on Computer and Communications Security                  A*   
#>  3 ACM Conference on Economics and Computation                             A*   
#>  4 ACM Conference on Embedded Networked Sensor Systems                     A*   
#>  5 ACM International Conference on Knowledge Discovery and Data Mining     A*   
#>  6 ACM International Conference on Mobile Computing and Networking         A*   
#>  7 ACM International Conference on Research and Development in Informatio… A*   
#>  8 ACM International Conference on the Foundations of Software Engineerin… A*   
#>  9 ACM International Symposium on Computer Architecture                    A*   
#> 10 ACM Multimedia                                                          A*   
#> # ℹ 972 more rows
core_journals
#> # A tibble: 639 × 4
#>    title                                           field_of_research issn  rank 
#>    <chr>                                           <chr>             <chr> <ord>
#>  1 ACM Computing Surveys                           0803              0360… A*   
#>  2 ACM Transactions on Computer - Human Interacti… 0806              1073… A*   
#>  3 ACM Transactions on Computer Systems            0803              0734… A*   
#>  4 ACM Transactions on Database Systems            0804              0362… A*   
#>  5 ACM Transactions on Graphics                    0801              0730… A*   
#>  6 ACM Transactions on Mathematical Software       0802              0098… A*   
#>  7 ACM Transactions on Programming Languages and … 0803              0164… A*   
#>  8 ACM Transactions on Software Engineering and M… 0803              1049… A*   
#>  9 Algorithmica: an international journal in comp… 0802              0178… A*   
#> 10 Annual Review of Information Science and Techn… 0807              0066… A*   
#> # ℹ 629 more rows
```
