…
  Title of the journal

- `rank`: :

  In order of best to lowest rank: Group 1+, Group 1, Group 2

## Examples

``` r
library(dplyr)
library(stringr)
monash |>
  filter(str_detect(title, "Statist")) |>
  arrange(rank)
#> # A tibble: 35 × 2
#>    title                                              rank    
#>    <chr>                                              <fct>   
#>  1 Annals of Statistics                               Group 1+
#>  2 Journal of the American Statistical Association    Group 1+
#>  3 Journal of the Royal Statistical Society, Series B Group 1+
#>  4 Review of Economics and Statistics                 Group 1+
#>  5 Journal of Business & Economic Statistics          Group 1 
#>  6 Journal of Computational and Graphical Statistics  Group 1 
#>  7 The Review of Economics and Statistics             Group 1 
#>  8 Journal of Business and Economic Statistics        Group 1 
#>  9 Annals of Applied Statistics                       Group 2 
#> 10 Annals of the Institute of Statistical Mathematics Group 2 
#> # ℹ 25 more rows
```
