…
``` r
mypubs_scholar
```

    ## # A tibble: 39 × 7
    ##    scholar_id   authors                    title  year journal details citations
    ##    <chr>        <chr>                      <chr> <int> <chr>   <chr>       <dbl>
    ##  1 miNl6rMAAAAJ M Lydeamore                Mode…  2013 NA      NA              0
    ##  2 miNl6rMAAAAJ M Lydeamore                Appr…  2015 NA      NA              0
    ##  3 miNl6rMAAAAJ M Lydeamore, PT Campbell,… A bi…  2016 arXiv … :1612.…         0
    ##  4 miNl6rMAAAAJ M Lydeamore, N Bean, AJ B… Choi…  2016 Bullet… 78 (2)…         3
    ##  5 miNl6rMAAAAJ T Vino, GR Singh, B Davis… Indi…  2017 PeerJ   5, e39…        22
    ##  6 miNl6rMAAAAJ MJ Lydeamore, PT Campbell… Calc…  2018 Epidem… 146 (9…        15
    ##  7 miNl6rMAAAAJ MJ Lydeamore               Mech…  2018 The Un… NA              2
    ##  8 miNl6rMAAAAJ MJ Lydeamore, PT Campbell… A bi…  2019 Mathem… 309, 1…        29
    ##  9 miNl6rMAAAAJ W Cuningham, J McVernon, … High…  2019 Austra… 43 (2)…        16
    ## 10 miNl6rMAAAAJ JH McMahon, MJ Lydeamore,… Brin…  2020 Journa… NA             24
    ## # ℹ 29 more rows
…
The tibble contains Google scholar citations for all papers, so we can
find the most cited papers.

``` r
mypubs |>
  arrange(desc(citations))
```

    ## # A tibble: 34 × 10
    ##    authors         year title journal volume issue page  details doi   citations
    ##    <chr>          <int> <chr> <chr>   <chr>  <chr> <chr> <chr>   <chr>     <dbl>
    ##  1 Cameron Zachr…  2021 Risk… Journa… 18     174   2020… 18 (17… 10.1…        55
    ##  2 M. J. Lydeamo…  2022 Burd… Antimi… 11     1     NA    11 (1)… 10.1…        48
    ##  3 James M. Trau…  2021 Unde… Nature… 12     1     NA    12 (1)… 10.1…        43
    ##  4 M.J. Lydeamor…  2019 A bi… Mathem… 309    2019… 163-… 309, 1… 10.1…        29
    ##  5 James H McMah…  2020 Brin… Journa… 76     3     547-… NA      10.1…        24
    ##  6 Cameron Zachr…  2022 COVI… Scienc… 8      14    NA    8 (14)… 10.1…        24
    ##  7 Thiripura Vin…  2017 Indi… PeerJ   5      2017… e3958 5, e39… 10.7…        22
    ##  8 E Conway, CR …  2023 COVI… Procee… NA     NA    NA    290 (2… NA           22
    ##  9 FM Shearer, J…  2024 Esti… Epidem… NA     NA    NA    47, 10… NA           17
    ## 10 Will Cuningha…  2019 High… Austra… 43     2     149-… 43 (2)… 10.1…        16
    ## # ℹ 24 more rows
…
